﻿  main.cpp
d:\users\stud130\desktop\2-lab4\lab4\main.cpp(26): warning C4018: <: несоответствие типов со знаком и без знака
d:\users\stud130\desktop\2-lab4\lab4\main.cpp(37): warning C4244: аргумент: преобразование "time_t" в "unsigned int", возможна потеря данных
  Создание кода...
  Компиляция...
  DateTimeExtended.cpp
  Создание кода...
  lab4.vcxproj -> D:\Users\stud130\Desktop\2-lab4\lab4\Debug\lab4.exe
